<?xml version="1.0" standalone="no"?>
<!DOCTYPE svg PUBLIC "-//W3C//DTD SVG 20010904//EN"
 "http://www.w3.org/TR/2001/REC-SVG-20010904/DTD/svg10.dtd">
<svg version="1.0" xmlns="http://www.w3.org/2000/svg"
 width="980.000000pt" height="980.000000pt" viewBox="0 0 980.000000 980.000000"
 preserveAspectRatio="xMidYMid meet">
<g transform="translate(0.000000,980.000000) scale(0.100000,-0.100000)"
fill="#000000" stroke="none">
<path d="M5435 8929 c-146 -18 -284 -72 -391 -153 -33 -25 -446 -432 -919
-905 l-860 -861 -190 189 c-104 103 -212 203 -238 220 -74 50 -191 101 -270
117 -75 16 -225 20 -293 9 -114 -19 -244 -76 -339 -148 -33 -25 -443 -430
-912 -899 -672 -673 -861 -868 -898 -926 -163 -255 -164 -585 -1 -837 27 -41
608 -629 1860 -1882 1469 -1469 1835 -1830 1893 -1868 259 -165 577 -165 836
0 57 37 259 233 949 924 l878 876 167 -168 c189 -189 257 -245 358 -293 121
-58 219 -77 365 -71 190 7 317 55 460 172 120 99 1734 1725 1777 1792 78 118
133 297 133 428 0 132 -56 312 -134 428 -45 68 -3617 3640 -3710 3711 -135
103 -358 165 -521 145z m-1112 -2989 c298 -43 532 -289 583 -611 23 -145 15
-422 -15 -527 -71 -244 -233 -407 -496 -496 -57 -19 -88 -20 -597 -23 l-538
-4 0 201 0 200 473 0 c528 0 551 2 644 66 58 40 96 89 119 157 12 37 15 81 12
219 -3 162 -5 176 -29 229 -36 76 -89 133 -157 166 l-57 28 -518 3 c-499 3
-519 2 -562 -17 -36 -16 -50 -29 -65 -63 -19 -42 -20 -72 -20 -890 l0 -848
-200 0 -200 0 0 869 c0 535 4 889 10 922 25 138 139 289 267 357 131 69 146
71 743 71 301 0 565 -4 603 -9z m2957 -190 l0 -200 -805 0 -805 0 0 -910 0
-910 -205 0 -205 0 0 1024 c0 738 3 1032 11 1057 17 50 55 96 97 119 36 19 64
19 975 20 l937 0 0 -200z m-180 -905 l0 -205 -637 2 -638 3 -3 190 c-1 104 0
195 2 202 4 10 134 13 641 13 l635 0 0 -205z"/>
</g>
</svg>
